Data Inspection
…
#   posPanas_max <dbl>, negPanas_max <dbl>, traitCheerful_max <dbl>,
#   traitGoodSpirits_max <dbl>, traitExtremelyHappy_max <dbl>,
#   traitCalmPeaceful_max <dbl>, traitSatisfied_max <dbl>,
#   traitFullOfLife_max <dbl>, traitCloseOthers_max <dbl>,
#   traitBelong_max <dbl>, traitEnthusiastic_max <dbl>,
#   traitAttentive_max <dbl>, traitProud_max <dbl>, traitActive_max <dbl>,
#   traitConfident_max <dbl>, traitSoSadNoCheer_max <dbl>,
#   traitNervous_max <dbl>, traitRestless_max <dbl>, traitHopeless_max <dbl>,
#   traitEverythingAnEffort_max <dbl>, traitWorthless_max <dbl>,
#   traitLonely_max <dbl>, traitAfraid_max <dbl>, traitJittery_max <dbl>,
#   traitIrritable_max <dbl>, traitAshamed_max <dbl>, traitUpset_max <dbl>,
#   traitAngry_max <dbl>, traitFrustrated_max <dbl>, summaryStats <chr>,
#   values <dbl>

# A tibble: 195 x 103
   agency_min perceivedContro… sympathy_min gernativity_min spirituality_min
        <dbl>            <dbl>        <dbl>           <dbl>            <dbl>
 1          1             1.08         1.75               6                2
 2          1             1.08         1.75               6                2
 3          1             1.08         1.75               6                2
 4          1             1.08         1.75               6                2
 5          1             1.08         1.75               6                2
 6          1             1.08         1.75               6                2
 7          1             1.08         1.75               6                2
 8          1             1.08         1.75               6                2
 9          1             1.08         1.75               6                2
10          1             1.08         1.75               6                2
# … with 185 more rows, and 98 more variables: religiousIdent_min <dbl>,
#   religiousPractice_min <dbl>, religiousSupport_min <dbl>,
#   religiousSpiritualCoping_min <dbl>, dailySpiritualExperiences_min <dbl>,
#   mindfulnessDueToRelSpir_min <dbl>, mentalHealthTx_min <dbl>,
#   posPanas_min <dbl>, negPanas_min <dbl>, traitCheerful_min <dbl>,
#   traitGoodSpirits_min <dbl>, traitExtremelyHappy_min <dbl>,
#   traitCalmPeaceful_min <dbl>, traitSatisfied_min <dbl>,
#   traitFullOfLife_min <dbl>, traitCloseOthers_min <dbl>,
#   traitBelong_min <dbl>, traitEnthusiastic_min <dbl>,
…
