R Notebook
…
Remove samples with cortNmol > 60

masterCortDat %>%
  filter(cortNmol > 60)
#381 greater than 60

greaterThanSixty <- round((nrow(subset(masterCortDat, cortNmol > 60)) / nrow(masterCortDat)) * 100, 2)

masterCortDat <- masterCortDat %>%
  filter(cortNmol <= 60)

str(masterCortDat)

# A tibble: 381 x 11
      id gender   age medUseNone1Yes startWork endWork providedCort1ye…   day
   <int>  <int> <int>          <int>     <int>   <int>            <int> <int>
 1 10107      1    58              1         9       9                1     2
 2 10164      2    77              1         1       5                1     4
 3 10253      1    63              1         9       9                1     2
 4 10329      2    59              2         1       5                1     2
 5 10343      1    66              2         1       5                1     2
 6 10408      2    51              8         1       5                1     2
 7 10408      2    51              8         1       9                1     3
 8 10450      1    37              2         1       5                1     4
 9 10531      2    56              2         1       5                1     2
10 10599      1    70              1         9       9                1     2
# … with 371 more rows, and 3 more variables: cortTimeText <chr>,
#   cortTime <dbl>, cortNmol <dbl>
…
 $ traitSoSadNoCheer        : int  5 5 5 5 4 5 5 5 4 5 ...
 $ traitNervous             : int  5 4 5 5 4 5 4 5 4 5 ...
 $ traitRestless            : int  5 4 5 5 4 5 3 5 4 4 ...
 $ traitHopeless            : int  5 5 5 5 4 5 5 5 5 5 ...
 $ traitEverythingAnEffort  : int  5 4 4 5 4 5 4 4 3 5 ...
 $ traitWorthless           : int  5 8 5 5 4 5 5 5 5 5 ...
 $ traitLonely              : int  5 2 3 5 4 5 5 5 5 5 ...
 $ traitAfraid              : int  5 5 5 5 4 5 5 5 4 5 ...
 $ traitJittery             : int  5 5 5 5 4 5 4 5 4 5 ...
 $ traitIrritable           : int  5 3 5 5 3 8 4 4 4 5 ...
 $ traitAshamed             : int  5 5 5 5 3 5 5 5 5 5 ...
 $ traitUpset               : int  5 3 4 4 4 4 3 4 4 5 ...
 $ traitAngry               : int  5 4 3 4 4 4 3 4 4 5 ...
 $ traitFrustrated          : int  5 3 4 5 4 5 3 4 3 4 ...
# A tibble: 1,731 x 64
      id   age gender medUseNone1Yes ethnicity education smoker     car aucTot
   <dbl> <int>  <int>          <int>     <int>     <int>  <int>   <dbl>  <dbl>
 1 10005    80      2              1         1         3      9  0.885   26.5 
 2 10019    51      1              1         1         9      9 -0.565   26.6 
 3 10023    78      2              8         1         7      2 -0.444   NA   
 4 10028    63      2              1         1         9      9 -0.155   27.2 
 5 10037    42      1              1         1         6      2  0.167   31.2 
 6 10040    49      1              2         1         7      2  0.120   27.4 
 7 10046    43      2              8         1         6      9  1.26     5.91
 8 10047    45      2              2         1         5      9  1.30    21.2 
 9 10060    58      1              2         1        10      9  0.0878  24.4 
10 10063    48      2              1         1        11      9 -0.192   30.7 
# … with 1,721 more rows, and 55 more variables: lmmCortSlope <dbl>,
#   leastSquaresCortSlope <dbl>, hyp1LmmUncCiiv <dbl>, hyp1LmmCondCiiv <dbl>,
#   hyp1SdUncCiiv <dbl>, hyp1LsCondCiiv <dbl>, dep <int>, gad <int>,
#   somaticAmplification <dbl>, neuroticism <dbl>, extraversion <dbl>,
#   opennessToExp <dbl>, conscientiousness <dbl>, agreeableness <dbl>,
#   agency <dbl>, perceivedControl <dbl>, sympathy <dbl>, gernativity <dbl>,
#   spirituality <int>, religiousIdent <dbl>, religiousPractice <dbl>,
#   religiousSupport <dbl>, religiousSpiritualCoping <int>,
#   dailySpiritualExperiences <dbl>, mindfulnessDueToRelSpir <dbl>,
…
